@startuml
|Dashboard|
:Bắt đầu;
partition **manual** {
:Danh sách các dịch
vụ mạng đang chạy/

:Click một dịch vụ mạng
để bắt đầu sửa]

note right
//Hành động này áp dụng//
//khi sửa lỗi bằng tay//
====
//Nếu NSO thực hiện//
//auto healing thì không//
//có can thiệp manual//
//trên giao diện//
====
//Các kiểu healing//
-	HEAL_RESTORE
-	HEAL_QOS
-	HEAL_RESET
-	PARTIAL_HEALING
end note
}

|#AntiqueWhite|NSO|

if (NS instance có
trạng thái là
INSTANTIATED ?) then (no)

-[#green,dashed]->
#HotPink:gửi thông báo
lỗi về cho Dashboard]

|Dashboard|
:Hiển thị thông báo lỗi]
:Kết thúc;
detach
|NSO|

else (yes)
-[#blue]->
:sửa lỗi theo
kiểu được truyền vào]
endif

|NSO|
|Dashboard|
:Hiển thị thông báo
healing dịch vụ
mạng thành công]

:Kết thúc;
@enduml